# compile verilog/system verilog design source files
sv xil_defaultlib  "../../../project_1.srcs/sources_1/new/beispiel1.sv"
sv xil_defaultlib  "../../../project_1.srcs/sim_1/new/testbed.sv"

# compile glbl module
verilog xil_defaultlib "glbl.v"

# Do not sort compile order
nosort
